Baseline analysis supplement
…
options(tibble.print_max = 15)
 
# %>% 
#     apa_table(
#         caption = "",
#         note = "",
#         escape = T)

vardatatable %>% select(Variable, `ICC class`, `ICC school`, n) %>% arrange(desc(`ICC class`)) %>% print(n = 20) %>% apa_table(caption = "Intra-class correlations sorted by class ICC")
## # A tibble: 475 x 4
##                  Variable `ICC class` `ICC school`     n
##                     <chr>       <chr>        <chr> <int>
##  1     paAccelerometer_T3        0.14         0.04   499
##  2     PA_intention_02_T1       0.111      < 0.001  1073
##  3        PA_intention_T1       0.105      < 0.001  1073
##  4       pafreqUsually_T1       0.094        0.003  1082
##  5       PA_autonomous_T3       0.092        0.003   873
##  6    PA_autonomous_03_T3       0.088        0.001   867
##  7    PA_identified_03_T3       0.088        0.001   867
##  8     PA_intention_01_T1       0.088      < 0.001  1073
##  9 sitLieAccelerometer_T1       0.086        0.145   706
## 10       pafreqUsually_T3       0.085        0.003   874
## 11        pahrsUsually_T1       0.085        0.005  1082
## 12           PA_agrbct_T3       0.084      < 0.001   873
## 13       PA_integrated_T3       0.083      < 0.001   872
## 14        PA_intrinsic_T3        0.08        0.004   872
## 15    PA_autonomous_07_T3       0.079        0.008   869
## 16     PA_intrinsic_01_T3       0.079        0.008   869
## 17    PA_autonomous_04_T3       0.076        0.006   870
## 18    PA_integrated_01_T3       0.076        0.006   870
## 19       PA_identified_T3       0.075        0.004   873
## 20           PA_frqbct_T3       0.074      < 0.001   869
## # ... with 455 more rows
## <caption>(\#tab:unnamed-chunk-4)*Intra-class correlations sorted by class ICC*</caption>
## 
## 
## Variable                               ICC class   ICC school   n        
## -------------------------------------  ----------  -----------  ---------
## paAccelerometer_T3                     0.14        0.04         499.00   
## PA_intention_02_T1                     0.111       < 0.001      1,073.00 
## PA_intention_T1                        0.105       < 0.001      1,073.00 
…
vardatatable %>% select(Variable, `ICC class`, `ICC school`, n) %>% arrange(desc(`ICC school`)) %>% print(n = 20) %>% apa_table(caption = "Intra-class correlations sorted by school ICC")
## # A tibble: 475 x 4
##                         Variable `ICC class` `ICC school`     n
##                            <chr>       <chr>        <chr> <int>
##  1        sitLieAccelerometer_T1       0.086        0.145   706
##  2                     fatpct_T1       0.003        0.123   942
##  3            paAccelerometer_T1       0.072        0.096   706
##  4                  sitBreaks_T1       0.058        0.085   706
##  5          paAccelerometer_diff       0.069        0.074   431
##  6        sitLieAccelerometer_T3       0.067        0.068   499
##  7                    symptom_T3        0.01        0.048   889
##  8   symptom_neckShoulderPain_T3       0.001        0.046   874
##  9        symptom_stomachAche_T3       0.003        0.043   863
## 10            paAccelerometer_T3        0.14         0.04   499
## 11                    symptom_T1       0.023        0.039  1084
## 12 symptom_tensionNervousness_T3     < 0.001        0.037   874
## 13               SB_intention_T1       0.014        0.035  1064
## 14 symptom_tirednessFaintness_T3       0.019        0.035   877
## 15            SB_intention_02_T1     < 0.001        0.034  1056
## 16           symptom_headAche_T3       0.006        0.034   876
## 17   symptom_neckShoulderPain_T1       0.011        0.033  1047
## 18                     b5open_T1        0.01         0.03  1068
## 19      sitLieAccelerometer_diff       0.047         0.03   431
## 20              pahrsLastweek_T3       0.042        0.028   843
## # ... with 455 more rows
## <caption>(\#tab:unnamed-chunk-5)*Intra-class correlations sorted by school ICC*</caption>
## 
## 
## Variable                               ICC class   ICC school   n        
## -------------------------------------  ----------  -----------  ---------
## sitLieAccelerometer_T1                 0.086       0.145        706.00   
## fatpct_T1                              0.003       0.123        942.00   
## paAccelerometer_T1                     0.072       0.096        706.00   
…
vardatatable <- data_frame(
  Variable = c(names(mean)), 
  Mean = round(mean, 2), 
  CI95 = paste(round(ci_low, 2), "-", round(ci_high, 2)), 
  "ICC class" =ifelse(round(ICC_group, 3) == 0, "< 0.001", round(ICC_group, 3)), 
  "ICC school" = ifelse(round(ICC_School, 3) == 0, "< 0.001", round(ICC_School, 3)),
  "ICC educational track" = ifelse(round(ICC_track, 3) == 0, "< 0.001", round(ICC_track, 3)),
  n = nonmissings) %>% 
  dplyr::arrange(Variable) %>% 
  filter(Variable != "") #remove first row, which is empty

options(tibble.print_max = 15)
 
vardatatable %>% select(Variable, `ICC educational track`, `ICC class`, `ICC school`, n) %>% arrange(desc(`ICC educational track`)) %>% print(n = 20)
## # A tibble: 475 x 5
##                  Variable `ICC educational track` `ICC class` `ICC school`
##                     <chr>                   <chr>       <chr>        <chr>
##  1     paAccelerometer_T1                   0.156       0.021      < 0.001
##  2 sitLieAccelerometer_T3                   0.148        0.01      < 0.001
##  3           sitBreaks_T1                    0.14       0.014      < 0.001
##  4     paAccelerometer_T3                   0.127       0.049        0.021
##  5   PA_amotivation_04_T1                   0.113       0.014      < 0.001
##  6        PA_extrinsic_T1                   0.096       0.008      < 0.001
##  7      PA_amotivation_T1                   0.091       0.006      < 0.001
##  8 sitLieAccelerometer_T1                   0.085       0.039        0.131
##  9    PA_autonomous_04_T1                   0.084     < 0.001        0.011
## 10    PA_integrated_01_T1                   0.084     < 0.001        0.011
## 11       PA_integrated_T1                   0.082     < 0.001        0.008
## 12           PA_frqbct_T3                   0.081       0.024        0.003
## 13    PA_controlled_02_T1                    0.08       0.012      < 0.001
## 14     PA_extrinsic_02_T1                    0.08       0.012      < 0.001
## 15 symptom_stomachAche_T1                    0.08       0.007      < 0.001
## 16    PA_controlled_01_T1                   0.077     < 0.001      < 0.001
## 17     PA_extrinsic_01_T1                   0.077     < 0.001      < 0.001
## 18            b5ext_01_T1                   0.076       0.005        0.015
## 19        SB_intention_T1                   0.076     < 0.001      < 0.001
## 20       PA_autonomous_T1                   0.073       0.005        0.006
## # ... with 455 more rows, and 1 more variables: n <int>

vardatatable %>% select(Variable, `ICC educational track`, `ICC class`, `ICC school`, n) %>% arrange(desc(`ICC class`)) %>% print(n = 20)
## # A tibble: 475 x 5
##                    Variable `ICC educational track` `ICC class`
##                       <chr>                   <chr>       <chr>
##  1     paAccelerometer_diff                 < 0.001       0.069
##  2           SB_inorm_01_T3                   0.006       0.057
##  3           SB_dnorm_01_T3                   0.023       0.053
##  4              SB_inorm_T3                 < 0.001       0.052
##  5        PA_agrbct_10_diff                 < 0.001       0.049
##  6       paAccelerometer_T3                   0.127       0.049
##  7 sitLieAccelerometer_diff                 < 0.001       0.047
##  8               PA_oexp_T1                   0.034       0.045
##  9       PA_intention_02_T1                   0.064       0.044
## 10           SB_sePbc_01_T3                   0.002       0.042
## 11              b5agr_01_T1                    0.01       0.041
## 12              SB_sePbc_T3                   0.007        0.04
## 13          PA_agrbct_04_T3                   0.029       0.039
## 14          PA_intention_T1                   0.064       0.039
## 15   PA_opportunities_01_T3                 < 0.001       0.039
## 16   sitLieAccelerometer_T1                   0.085       0.039
## 17            PA_goal_01_T1                   0.007       0.038
## 18               PA_goal_T1                   0.007       0.038
## 19     PA_amotivation_04_T3                 < 0.001       0.037
## 20        PA_pbcNeg_02_diff                   0.008       0.037
## # ... with 455 more rows, and 2 more variables: `ICC school` <chr>,
## #   n <int>

vardatatable %>% select(Variable, `ICC educational track`, `ICC class`, `ICC school`, n) %>% arrange(desc(`ICC school`)) %>% print(n = 20)
## # A tibble: 475 x 5
##                         Variable `ICC educational track` `ICC class`
##                            <chr>                   <chr>       <chr>
##  1        sitLieAccelerometer_T1                   0.085       0.039
##  2                     fatpct_T1                   0.007       0.002
##  3          paAccelerometer_diff                 < 0.001       0.069
##  4   symptom_neckShoulderPain_T3                 < 0.001       0.001
##  5 symptom_tensionNervousness_T3                 < 0.001     < 0.001
##  6              pahrsLastweek_T3                   0.054       0.012
##  7      sitLieAccelerometer_diff                 < 0.001       0.047
##  8            SB_intention_01_T3                   0.024       0.032
##  9                PA_inorm_01_T3                   0.003       0.009
## 10                   PA_inorm_T3                   0.003       0.009
## 11                      b5ext_T1                   0.048     < 0.001
## 12                     b5open_T1                   0.014       0.004
## 13         PA_autonomous_05_diff                 < 0.001     < 0.001
## 14             PA_frqbct_02_diff                 < 0.001     < 0.001
## 15               PA_frqbct_02_T3                   0.061       0.015
## 16         PA_integrated_02_diff                 < 0.001     < 0.001
## 17                SB_dnorm_01_T3                   0.023       0.053
## 18              PA_oexpNeg_09_T3                   0.005       0.006
## 19     PA_opportunitiesNeg_06_T1                   0.002     < 0.001
## 20                  PA_pbc_01_T3                 < 0.001       0.004
## # ... with 455 more rows, and 2 more variables: `ICC school` <chr>,
## #   n <int>
# %>% 
#     apa_table(
#         caption = "",
#         note = "",
#         escape = T)

vardatatable %>% select(Variable, `ICC educational track`, `ICC class`, `ICC school`, n) %>% arrange(desc(`ICC educational track`)) %>% print(n = 20) %>%  apa_table(caption = "Intra-class correlations sorted by educational track ICC")
## # A tibble: 475 x 5
##                  Variable `ICC educational track` `ICC class` `ICC school`
##                     <chr>                   <chr>       <chr>        <chr>
##  1     paAccelerometer_T1                   0.156       0.021      < 0.001
##  2 sitLieAccelerometer_T3                   0.148        0.01      < 0.001
##  3           sitBreaks_T1                    0.14       0.014      < 0.001
##  4     paAccelerometer_T3                   0.127       0.049        0.021
##  5   PA_amotivation_04_T1                   0.113       0.014      < 0.001
##  6        PA_extrinsic_T1                   0.096       0.008      < 0.001
##  7      PA_amotivation_T1                   0.091       0.006      < 0.001
##  8 sitLieAccelerometer_T1                   0.085       0.039        0.131
##  9    PA_autonomous_04_T1                   0.084     < 0.001        0.011
## 10    PA_integrated_01_T1                   0.084     < 0.001        0.011
## 11       PA_integrated_T1                   0.082     < 0.001        0.008
## 12           PA_frqbct_T3                   0.081       0.024        0.003
## 13    PA_controlled_02_T1                    0.08       0.012      < 0.001
## 14     PA_extrinsic_02_T1                    0.08       0.012      < 0.001
## 15 symptom_stomachAche_T1                    0.08       0.007      < 0.001
## 16    PA_controlled_01_T1                   0.077     < 0.001      < 0.001
## 17     PA_extrinsic_01_T1                   0.077     < 0.001      < 0.001
## 18            b5ext_01_T1                   0.076       0.005        0.015
## 19        SB_intention_T1                   0.076     < 0.001      < 0.001
## 20       PA_autonomous_T1                   0.073       0.005        0.006
## # ... with 455 more rows, and 1 more variables: n <int>
## <caption>(\#tab:unnamed-chunk-7)*Intra-class correlations sorted by educational track ICC*</caption>
## 
## 
## Variable                               ICC educational track   ICC class   ICC school   n        
## -------------------------------------  ----------------------  ----------  -----------  ---------
## paAccelerometer_T1                     0.156                   0.021       < 0.001      706.00   
## sitLieAccelerometer_T3                 0.148                   0.01        < 0.001      499.00   
## sitBreaks_T1                           0.14                    0.014       < 0.001      706.00   
…
