…
Sys.setenv("BINPREF" = "C:/HYApp/Rtools3.4/mingw_$(WIN)/bin/")

library(brmstools)

Regression analysis

df %>% select(PA_agrbct_T1, trackSchool) %>% dplyr::group_by(trackSchool) %>% summarise(mean = mean(PA_agrbct_T1, na.rm = TRUE), n = n())
## # A tibble: 17 x 3
##    trackSchool       mean     n
##    <chr>            <dbl> <int>
##  1 Business Admin1   3.34   149
##  2 Business Admin2   3.60   131
##  3 Business Admin4   3.05     2
##  4 Business IT1      2.49    76
##  5 Business IT2      2.64    87
##  6 HRC1              3.10    67
##  7 HRC2              1.00     1
##  8 HRC5              3.18   145
##  9 NANA            NaN       81
## 10 Nursing2          3.30     1
## # ... with 7 more rows

# Create combination of track and school variables, show means
df %>% dplyr::mutate(trackSchool = paste0(track, school)) %>% select(PA_agrbct_T1, track, school, trackSchool) %>% dplyr::group_by(trackSchool) %>% summarise(mean = mean(PA_agrbct_T1, na.rm = TRUE), n = n())
## # A tibble: 17 x 3
##    trackSchool       mean     n
##    <chr>            <dbl> <int>
##  1 Business Admin1   3.34   149
##  2 Business Admin2   3.60   131
##  3 Business Admin4   3.05     2
##  4 Business IT1      2.49    76
##  5 Business IT2      2.64    87
##  6 HRC1              3.10    67
##  7 HRC2              1.00     1
##  8 HRC5              3.18   145
##  9 NANA            NaN       81
## 10 Nursing2          3.30     1
## # ... with 7 more rows
…
